{
  "dependencies": {
    "mssql1": {
      "secretStore": "AzureAppSettings",
      "resourceId": "/subscriptions/[parameters('subscriptionId')]/resourcegroups/[parameters('resourceGroupName')]/providers/Microsoft.Sql/servers/locationvoiturephilippebdbserver/databases/LocationVoiturePhilippeB_db",
      "type": "mssql.azure",
      "connectionId": "ConnectionStrings:LocationVoitureDbContext",
      "dynamicId": null
    }
  }
}